{
  "$schema": "https://schema.management.azure.com/schemas/2015-01-01/deploymentParameters.json#",
  "contentVersion": "1.0.0.0",
  "parameters": {
    "hostingPlanName": {
      "value": "hp1"
    },
    "environmentType": {
      "value": "dev"
    },
    "warsawApiUrl": {
      "value": "https://api.um.warszawa.pl/api/action/"
    },
    "warsawApiKey": {
      "value": "9f975126-0a86-45d4-bb2b-a0497cc4a7b0"
    },
    "websiteName": {
      "value": "jar9420190220ws1"
    },
    "serviceOwner": {
      "value": "JS"
    }
  }
}